<?xml version="1.0" encoding="utf-8"?>
<!-- Generator: Adobe Illustrator 24.1.1, SVG Export Plug-In . SVG Version: 6.00 Build 0)  -->
<svg version="1.1" id="Layer_1" xmlns="http://www.w3.org/2000/svg" xmlns:xlink="http://www.w3.org/1999/xlink" x="0px" y="0px"
	 viewBox="0 0 512 512" style="enable-background:new 0 0 512 512;" xml:space="preserve">
<style type="text/css">
	.st0{fill-rule:evenodd;clip-rule:evenodd;}
</style>
<g>
	<path class="st0" d="M0,59.1C0,26.5,26.5,0,59.1,0h393.8C485.5,0,512,26.5,512,59.1V256c0,10.9-8.8,19.7-19.7,19.7
		c-10.9,0-19.7-8.8-19.7-19.7V59.1c0-10.9-8.8-19.7-19.7-19.7H59.1c-10.9,0-19.7,8.8-19.7,19.7v393.8c0,10.9,8.8,19.7,19.7,19.7
		h157.5c10.9,0,19.7,8.8,19.7,19.7c0,10.9-8.8,19.7-19.7,19.7H59.1C26.5,512,0,485.5,0,452.9V59.1z"/>
	<path class="st0" d="M393.8,177.2c0-10.9-8.8-19.7-19.7-19.7H177.2c-10.9,0-19.7,8.8-19.7,19.7v196.9c0,10.9,8.8,19.7,19.7,19.7
		s19.7-8.8,19.7-19.7V196.9h177.2C385,196.9,393.8,188.1,393.8,177.2z"/>
	<path class="st0" d="M163.3,163.3c-7.7,7.7-7.7,20.2,0,27.8l0,0.1l315.1,315.1c7.7,7.7,20.2,7.7,27.9,0c7.7-7.7,7.7-20.2,0-27.9
		L191.2,163.3C183.5,155.6,171,155.6,163.3,163.3L163.3,163.3z"/>
</g>
</svg>
